{
  "theme": {
    "name": "FoldableTheme",
    "styles": [
      "default",
      "black",
      "blue",
      "cyan",
      "green",
      "purple",
      "red",
      "yellow"
    ],
    "version": "2.24",
    "sharedTheme": {
      "isPortalSupport": true,
      "useHeader": false,
      "useLogo": false
    }
  },
  "portalUrl": "https://udistritalfjc.maps.arcgis.com",
  "appId": "",
  "authorizedCrossOriginDomains": [],
  "title": "Modelo Vías 5G",
  "subtitle": "with ArcGIS Web AppBuilder",
  "keepAppState": true,
  "logo": "images/app-logo.png",
  "geometryService": "https://utility.arcgisonline.com/arcgis/rest/services/Geometry/GeometryServer",
  "links": [],
  "widgetOnScreen": {
    "widgets": [
      {
        "uri": "themes/FoldableTheme/widgets/HeaderController/Widget",
        "position": {
          "left": 0,
          "top": 0,
          "right": 0,
          "height": 40,
          "relativeTo": "browser"
        },
        "version": "2.24",
        "id": "themes_FoldableTheme_widgets_HeaderController_Widget_1",
        "name": "HeaderController"
      },
      {
        "uri": "widgets/Scalebar/Widget",
        "position": {
          "left": 7,
          "bottom": 25,
          "relativeTo": "map"
        },
        "version": "2.24",
        "id": "widgets_Scalebar_Widget_2",
        "name": "Scalebar"
      },
      {
        "uri": "widgets/Search/Widget",
        "position": {
          "left": 55,
          "top": 5,
          "relativeTo": "map"
        },
        "version": "2.24",
        "id": "widgets_Search_Widget_3",
        "name": "Search"
      },
      {
        "uri": "widgets/Coordinate/Widget",
        "position": {
          "left": 7,
          "bottom": 5,
          "relativeTo": "map"
        },
        "version": "2.24",
        "id": "widgets_Coordinate_Widget_4",
        "name": "Coordinate"
      },
      {
        "position": {
          "left": 55,
          "top": 45,
          "relativeTo": "map"
        },
        "placeholderIndex": 1,
        "id": "_5",
        "name": "Chart",
        "version": "2.24",
        "closeable": true,
        "uri": "widgets/Chart/Widget",
        "config": "configs/Chart/config__5.json"
      },
      {
        "position": {
          "left": 105,
          "top": 45,
          "relativeTo": "map"
        },
        "placeholderIndex": 1,
        "id": "_6"
      },
      {
        "position": {
          "left": 155,
          "top": 45,
          "relativeTo": "map"
        },
        "placeholderIndex": 2,
        "id": "_7"
      },
      {
        "position": {
          "left": 205,
          "top": 45,
          "relativeTo": "map"
        },
        "placeholderIndex": 3,
        "id": "_8"
      },
      {
        "position": {
          "left": 255,
          "top": 45,
          "relativeTo": "map"
        },
        "placeholderIndex": 4,
        "id": "_9"
      },
      {
        "uri": "widgets/OverviewMap/Widget",
        "position": {
          "bottom": 0,
          "right": 0,
          "zIndex": 1,
          "relativeTo": "map"
        },
        "version": "2.24",
        "id": "widgets_OverviewMap_Widget_10",
        "name": "OverviewMap"
      },
      {
        "uri": "widgets/HomeButton/Widget",
        "position": {
          "left": 7,
          "top": 75,
          "relativeTo": "map"
        },
        "version": "2.24",
        "id": "widgets_HomeButton_Widget_11",
        "name": "HomeButton"
      },
      {
        "uri": "widgets/MyLocation/Widget",
        "position": {
          "left": 7,
          "top": 110,
          "relativeTo": "map"
        },
        "version": "2.24",
        "id": "widgets_MyLocation_Widget_12",
        "name": "MyLocation"
      },
      {
        "uri": "widgets/AttributeTable/Widget",
        "position": {
          "relativeTo": "browser"
        },
        "version": "2.24",
        "id": "widgets_AttributeTable_Widget_13",
        "name": "AttributeTable",
        "config": "configs/AttributeTable/config_widgets_AttributeTable_Widget_13.json"
      },
      {
        "uri": "widgets/Splash/Widget",
        "visible": false,
        "position": {
          "relativeTo": "browser"
        },
        "version": "2.24",
        "id": "widgets_Splash_Widget_14",
        "name": "Splash"
      },
      {
        "uri": "widgets/ZoomSlider/Widget",
        "position": {
          "top": 5,
          "left": 7,
          "relativeTo": "map"
        },
        "version": "2.24",
        "id": "widgets_ZoomSlider_Widget_15",
        "name": "ZoomSlider"
      },
      {
        "uri": "widgets/ExtentNavigate/Widget",
        "visible": false,
        "position": {
          "top": 190,
          "left": 7,
          "relativeTo": "map"
        },
        "id": "widgets_ExtentNavigate_Widget_16",
        "name": "ExtentNavigate",
        "version": "2.24"
      },
      {
        "uri": "widgets/FullScreen/Widget",
        "visible": false,
        "position": {
          "top": 150,
          "left": 7,
          "relativeTo": "map"
        },
        "version": "2.24",
        "id": "widgets_FullScreen_Widget_17",
        "name": "FullScreen"
      }
    ],
    "panel": {
      "uri": "jimu/OnScreenWidgetPanel",
      "position": {
        "relativeTo": "map"
      }
    }
  },
  "map": {
    "3D": false,
    "2D": true,
    "position": {
      "left": 0,
      "top": 40,
      "right": 0,
      "bottom": 0
    },
    "itemId": "4f0b0786fd0c4b87b43a78abffb151b1",
    "mapOptions": {},
    "id": "map",
    "portalUrl": "https://udistritalfjc.maps.arcgis.com",
    "mapRefreshInterval": {
      "useWebMapRefreshInterval": true
    }
  },
  "widgetPool": {
    "panel": {
      "uri": "themes/FoldableTheme/panels/FoldablePanel/Panel",
      "position": {
        "top": 5,
        "right": 5,
        "bottom": 5,
        "zIndex": 5,
        "relativeTo": "map"
      }
    },
    "widgets": [
      {
        "uri": "widgets/Legend/Widget",
        "version": "2.24",
        "id": "widgets_Legend_Widget_18",
        "name": "Legend",
        "index": 0
      },
      {
        "uri": "widgets/LayerList/Widget",
        "version": "2.24",
        "id": "widgets_LayerList_Widget_19",
        "name": "LayerList",
        "index": 1
      },
      {
        "uri": "widgets/ANALISIS_BUFFER/Widget",
        "label": "Zonas de Influencia",
        "version": "2.22",
        "id": "widgets_ANALISIS_BUFFER_Widget_19",
        "name": "ANALISIS_BUFFER",
        "index": 1
      },
      {
        "uri": "widgets/ANALISIS_CIRCLE/Widget",
        "label": "Circulo de Interés",
        "version": "2.22",
        "id": "widgets_ANALISIS_CIRCLE_Widget_19",
        "name": "ANALISIS_CIRCLE",
        "index": 1
      }
    ],
    "groups": []
  },
  "mobileLayout": {
    "widgetOnScreen": {
      "widgets": {
        "widgets/Scalebar/Widget": {
          "position": {
            "left": 7,
            "bottom": 40
          },
          "version": "1.4"
        },
        "widgets/Coordinate/Widget": {
          "position": {
            "left": 7,
            "bottom": 17
          },
          "version": "1.4"
        }
      }
    }
  },
  "loadingPage": {
    "backgroundColor": "#508dca",
    "backgroundImage": {
      "visible": false
    },
    "loadingGif": {
      "visible": true,
      "uri": "configs/loading/images/predefined_loading_1.gif",
      "width": 58,
      "height": 29
    }
  },
  "wabVersion": "2.24",
  "isTemplateApp": true,
  "isWebTier": false,
  "httpProxy": {
    "useProxy": true,
    "url": "https://jromero.esrinosa.local:3344/proxy.js"
  },
  "dataSource": {
    "dataSources": {},
    "settings": {}
  }
}
